%YAML 1.1
%TAG !u! tag:unity3d.com,2011:
--- !u!74 &7400000
AnimationClip:
  m_ObjectHideFlags: 0
  m_CorrespondingSourceObject: {fileID: 0}
  m_PrefabInstance: {fileID: 0}
  m_PrefabAsset: {fileID: 0}
  m_Name: Fire
  serializedVersion: 6
  m_Legacy: 0
  m_Compressed: 0
  m_UseHighQualityCurve: 1
  m_RotationCurves: []
  m_CompressedRotationCurves: []
  m_EulerCurves: []
  m_PositionCurves: []
  m_ScaleCurves: []
  m_FloatCurves: []
  m_PPtrCurves:
  - curve:
    - time: 0
      value: {fileID: 21300000, guid: 9ce9a0572a64ac94a851a32164d1459f, type: 3}
    - time: 0.083333336
      value: {fileID: 21300000, guid: d6a6ce31bd5c3254c9007f57fcd62e5f, type: 3}
    - time: 0.16666667
      value: {fileID: 21300000, guid: f14ca49ac388a5341a2db87dcb6c1b87, type: 3}
    - time: 0.25
      value: {fileID: 21300000, guid: 660241fae54cde54fbdfe2cd7aa95244, type: 3}
    - time: 0.33333334
      value: {fileID: 21300000, guid: c670f0062239ce243b63395052934e67, type: 3}
    - time: 0.41666666
      value: {fileID: 21300000, guid: c55042f3f1fd2fa47bac9f688e14c8b8, type: 3}
    - time: 0.5
      value: {fileID: 21300000, guid: 80e722c9d4fcb434dbc807e01bbccd08, type: 3}
    - time: 0.5833333
      value: {fileID: 21300000, guid: d0bc77d8e73b9db43858a14e10a6a7c6, type: 3}
    - time: 0.6666667
      value: {fileID: 21300000, guid: f7129642074550e45ad14f418818d43e, type: 3}
    - time: 0.75
      value: {fileID: 21300000, guid: 4af96ee7468fdee4985d769fee9f875f, type: 3}
    attribute: m_Sprite
    path: 
    classID: 212
    script: {fileID: 0}
  m_SampleRate: 12
  m_WrapMode: 0
  m_Bounds:
    m_Center: {x: 0, y: 0, z: 0}
    m_Extent: {x: 0, y: 0, z: 0}
  m_ClipBindingConstant:
    genericBindings:
    - serializedVersion: 2
      path: 0
      attribute: 0
      script: {fileID: 0}
      typeID: 212
      customType: 23
      isPPtrCurve: 1
    pptrCurveMapping:
    - {fileID: 21300000, guid: 9ce9a0572a64ac94a851a32164d1459f, type: 3}
    - {fileID: 21300000, guid: d6a6ce31bd5c3254c9007f57fcd62e5f, type: 3}
    - {fileID: 21300000, guid: f14ca49ac388a5341a2db87dcb6c1b87, type: 3}
    - {fileID: 21300000, guid: 660241fae54cde54fbdfe2cd7aa95244, type: 3}
    - {fileID: 21300000, guid: c670f0062239ce243b63395052934e67, type: 3}
    - {fileID: 21300000, guid: c55042f3f1fd2fa47bac9f688e14c8b8, type: 3}
    - {fileID: 21300000, guid: 80e722c9d4fcb434dbc807e01bbccd08, type: 3}
    - {fileID: 21300000, guid: d0bc77d8e73b9db43858a14e10a6a7c6, type: 3}
    - {fileID: 21300000, guid: f7129642074550e45ad14f418818d43e, type: 3}
    - {fileID: 21300000, guid: 4af96ee7468fdee4985d769fee9f875f, type: 3}
  m_AnimationClipSettings:
    serializedVersion: 2
    m_AdditiveReferencePoseClip: {fileID: 0}
    m_AdditiveReferencePoseTime: 0
    m_StartTime: 0
    m_StopTime: 0.8333333
    m_OrientationOffsetY: 0
    m_Level: 0
    m_CycleOffset: 0
    m_HasAdditiveReferencePose: 0
    m_LoopTime: 1
    m_LoopBlend: 0
    m_LoopBlendOrientation: 0
    m_LoopBlendPositionY: 0
    m_LoopBlendPositionXZ: 0
    m_KeepOriginalOrientation: 0
    m_KeepOriginalPositionY: 1
    m_KeepOriginalPositionXZ: 0
    m_HeightFromFeet: 0
    m_Mirror: 0
  m_EditorCurves: []
  m_EulerEditorCurves: []
  m_HasGenericRootTransform: 0
  m_HasMotionFloatCurves: 0
  m_Events: []
