%YAML 1.1
%TAG !u! tag:unity3d.com,2011:
--- !u!114 &11400000
MonoBehaviour:
  m_ObjectHideFlags: 0
  m_CorrespondingSourceObject: {fileID: 0}
  m_PrefabInstance: {fileID: 0}
  m_PrefabAsset: {fileID: 0}
  m_GameObject: {fileID: 0}
  m_Enabled: 1
  m_EditorHideFlags: 0
  m_Script: {fileID: 11500000, guid: bb493cf1ab0a067479e019671ce32ad8, type: 3}
  m_Name: HeavyEnemyLaser
  m_EditorClassIdentifier: 
  laserName: HeavyEnemyLaser
  laserSprite: {fileID: 8022866174986626649, guid: d5167b2e5f87ad34181d903806de9e4a, type: 3}
  laserTarget: 0
  damage: 2
